…
### Exercise 9

Now we will calculate which states have the most and fewest Denny’s
locations.

``` r
dennys %>% 
  count(state, sort = TRUE)
```

    ## # A tibble: 51 × 2
    ##    state     n
    ##    <chr> <int>
    ##  1 CA      403
    ##  2 TX      200
    ##  3 FL      140
    ##  4 AZ       83
    ##  5 IL       56
    ##  6 NY       56
    ##  7 WA       49
    ##  8 OH       44
    ##  9 MO       42
    ## 10 PA       40
    ## # ℹ 41 more rows

``` r
dennys %>% 
  count(state) %>%
  arrange(n)
```

    ## # A tibble: 51 × 2
    ##    state     n
    ##    <chr> <int>
    ##  1 DE        1
    ##  2 DC        2
    ##  3 VT        2
    ##  4 AK        3
    ##  5 IA        3
    ##  6 NH        3
    ##  7 SD        3
    ##  8 WV        3
    ##  9 LA        4
    ## 10 MT        4
    ## # ℹ 41 more rows
…
